{
  "E": 137, "A": 71, "I": 63, "S": 62, "N": 61, "R": 58, "T": 56,
  "O": 48, "L": 48, "U": 43, "D": 35, "C": 31, "M": 25, "P": 24,
  "G": 12, "B": 11, "V": 11, "H": 11, "F": 11, "Q": 6, "Y": 4,
  "X": 4, "J": 3, "K": 3, "W": 2, "Z": 2
}
